AES/AES.sim/sim_1/behav/xsim/simulate.log
Time resolution is 1 ps
time:               22000 keyCounter:   7  round: 1 buff:x rem:0 in:xxxxxxxx rot: 0d0e0f0c rin:0c0d0e0f sub:xxxxxxxx rconv: 01000000 xorIn1:xxxxxxxx xorIn2:xxxxxxxx xorOut:xxxxxxxx temp:0c0d0e0f w:000102030405060708090a0b0c0d0e0fxxxxxxxxxxxxxxxxxxxxxxxxxxxxxxxxxxxxxxxxxxxxxxxxxxxxxxxxxxxxxxxxxxxxxxxxxxxxxxxxxxxxxxxxxxxxxxxxxxxxxxxxxxxxxxxxxxxxxxxxxxxxxxxxxxxxxxxxxxxxxxxxxxxxxxxxxxxxxxxxxxxxxxxxxxxxxxxxxxxxxxxxxxxxxxxxxxxxxxxxxxxxxxxxxxxxxxxxxxxxxxxxxxxxxxxxxxxxxxxxxxxxxxxxxxxxxxxxxxxxxxxxxxxxxxxxxxxxxxxxxxxxxxxxxxxxxxxxxxxxxxxxxxxxxxxxxxxxxxxx
time:               26000 keyCounter:   8  round: 1 buff:x rem:1 in:xxxxxxxx rot: 0d0e0f0c rin:0c0d0e0f sub:xxxxxxxx rconv: 01000000 xorIn1:xxxxxxxx xorIn2:xxxxxxxx xorOut:xxxxxxxx temp:0c0d0e0f w:000102030405060708090a0b0c0d0e0fxxxxxxxxxxxxxxxxxxxxxxxxxxxxxxxxxxxxxxxxxxxxxxxxxxxxxxxxxxxxxxxxxxxxxxxxxxxxxxxxxxxxxxxxxxxxxxxxxxxxxxxxxxxxxxxxxxxxxxxxxxxxxxxxxxxxxxxxxxxxxxxxxxxxxxxxxxxxxxxxxxxxxxxxxxxxxxxxxxxxxxxxxxxxxxxxxxxxxxxxxxxxxxxxxxxxxxxxxxxxxxxxxxxxxxxxxxxxxxxxxxxxxxxxxxxxxxxxxxxxxxxxxxxxxxxxxxxxxxxxxxxxxxxxxxxxxxxxxxxxxxxxxxxxxxxxxxxxxxxx
time:               30000 keyCounter:   9  round: 1 buff:x rem:2 in:xxxxxxxx rot: 0d0e0f0c rin:0c0d0e0f sub:d7ab76fe rconv: 01000000 xorIn1:xxxxxxxx xorIn2:xxxxxxxx xorOut:xxxxxxxx temp:0c0d0e0f w:000102030405060708090a0b0c0d0e0fxxxxxxxxxxxxxxxxxxxxxxxxxxxxxxxxxxxxxxxxxxxxxxxxxxxxxxxxxxxxxxxxxxxxxxxxxxxxxxxxxxxxxxxxxxxxxxxxxxxxxxxxxxxxxxxxxxxxxxxxxxxxxxxxxxxxxxxxxxxxxxxxxxxxxxxxxxxxxxxxxxxxxxxxxxxxxxxxxxxxxxxxxxxxxxxxxxxxxxxxxxxxxxxxxxxxxxxxxxxxxxxxxxxxxxxxxxxxxxxxxxxxxxxxxxxxxxxxxxxxxxxxxxxxxxxxxxxxxxxxxxxxxxxxxxxxxxxxxxxxxxxxxxxxxxxxxxxxxxxx
time:               34000 keyCounter:  10  round: 1 buff:x rem:3 in:00010203 rot: ab76fed6 rin:d6ab76fe sub:d7ab76fe rconv: 01000000 xorIn1:d7ab76fe xorIn2:01000000 xorOut:d6ab76fe temp:d6ab76fe w:000102030405060708090a0b0c0d0e0fxxxxxxxxxxxxxxxxxxxxxxxxxxxxxxxxxxxxxxxxxxxxxxxxxxxxxxxxxxxxxxxxxxxxxxxxxxxxxxxxxxxxxxxxxxxxxxxxxxxxxxxxxxxxxxxxxxxxxxxxxxxxxxxxxxxxxxxxxxxxxxxxxxxxxxxxxxxxxxxxxxxxxxxxxxxxxxxxxxxxxxxxxxxxxxxxxxxxxxxxxxxxxxxxxxxxxxxxxxxxxxxxxxxxxxxxxxxxxxxxxxxxxxxxxxxxxxxxxxxxxxxxxxxxxxxxxxxxxxxxxxxxxxxxxxxxxxxxxxxxxxxxxxxxxxxxxxxxxxxx
time:               38000 keyCounter:  11  round: 1 buff:x rem:4 in:04050607 rot: aa74fdd6 rin:d6aa74fd sub:d7ab76fe rconv: 01000000 xorIn1:00010203 xorIn2:d6ab76fe xorOut:d6aa74fd temp:d6aa74fd w:000102030405060708090a0b0c0d0e0fxxxxxxxxxxxxxxxxxxxxxxxxxxxxxxxxxxxxxxxxxxxxxxxxxxxxxxxxxxxxxxxxxxxxxxxxxxxxxxxxxxxxxxxxxxxxxxxxxxxxxxxxxxxxxxxxxxxxxxxxxxxxxxxxxxxxxxxxxxxxxxxxxxxxxxxxxxxxxxxxxxxxxxxxxxxxxxxxxxxxxxxxxxxxxxxxxxxxxxxxxxxxxxxxxxxxxxxxxxxxxxxxxxxxxxxxxxxxxxxxxxxxxxxxxxxxxxxxxxxxxxxxxxxxxxxxxxxxxxxxxxxxxxxxxxxxxxxxxxxxxxxxxxxxxxxxxxxxxxxx
time:               42000 keyCounter:  12  round: 1 buff:x rem:5 in:08090a0b rot: af72fad2 rin:d2af72fa sub:d7ab76fe rconv: 01000000 xorIn1:04050607 xorIn2:d6aa74fd xorOut:d2af72fa temp:d2af72fa w:000102030405060708090a0b0c0d0e0fd6aa74fdxxxxxxxxxxxxxxxxxxxxxxxxxxxxxxxxxxxxxxxxxxxxxxxxxxxxxxxxxxxxxxxxxxxxxxxxxxxxxxxxxxxxxxxxxxxxxxxxxxxxxxxxxxxxxxxxxxxxxxxxxxxxxxxxxxxxxxxxxxxxxxxxxxxxxxxxxxxxxxxxxxxxxxxxxxxxxxxxxxxxxxxxxxxxxxxxxxxxxxxxxxxxxxxxxxxxxxxxxxxxxxxxxxxxxxxxxxxxxxxxxxxxxxxxxxxxxxxxxxxxxxxxxxxxxxxxxxxxxxxxxxxxxxxxxxxxxxxxxxxxxxxxxxxxxxxx
time:               46000 keyCounter:  13  round: 1 buff:x rem:6 in:0c0d0e0f rot: a678f1da rin:daa678f1 sub:d7ab76fe rconv: 01000000 xorIn1:08090a0b xorIn2:d2af72fa xorOut:daa678f1 temp:daa678f1 w:000102030405060708090a0b0c0d0e0fd6aa74fdd2af72faxxxxxxxxxxxxxxxxxxxxxxxxxxxxxxxxxxxxxxxxxxxxxxxxxxxxxxxxxxxxxxxxxxxxxxxxxxxxxxxxxxxxxxxxxxxxxxxxxxxxxxxxxxxxxxxxxxxxxxxxxxxxxxxxxxxxxxxxxxxxxxxxxxxxxxxxxxxxxxxxxxxxxxxxxxxxxxxxxxxxxxxxxxxxxxxxxxxxxxxxxxxxxxxxxxxxxxxxxxxxxxxxxxxxxxxxxxxxxxxxxxxxxxxxxxxxxxxxxxxxxxxxxxxxxxxxxxxxxxxxxxxxxxxxxxxxxxxxxxxxxxxx
time:               50000 keyCounter:  14  round: 2 buff:x rem:0 in:04050607 rot: ab76fed6 rin:d6ab76fe sub:d7ab76fe rconv: 02000000 xorIn1:0c0d0e0f xorIn2:daa678f1 xorOut:d6ab76fe temp:d6ab76fe w:000102030405060708090a0b0c0d0e0fd6aa74fdd2af72fadaa678f1xxxxxxxxxxxxxxxxxxxxxxxxxxxxxxxxxxxxxxxxxxxxxxxxxxxxxxxxxxxxxxxxxxxxxxxxxxxxxxxxxxxxxxxxxxxxxxxxxxxxxxxxxxxxxxxxxxxxxxxxxxxxxxxxxxxxxxxxxxxxxxxxxxxxxxxxxxxxxxxxxxxxxxxxxxxxxxxxxxxxxxxxxxxxxxxxxxxxxxxxxxxxxxxxxxxxxxxxxxxxxxxxxxxxxxxxxxxxxxxxxxxxxxxxxxxxxxxxxxxxxxxxxxxxxxxxxxxxxxxxxxxxxxxxxxxxxxxx
time:               54000 keyCounter:  15  round: 2 buff:x rem:1 in:08090a0b rot: ab76fed6 rin:d6ab76fe sub:d7ab76fe rconv: 02000000 xorIn1:0c0d0e0f xorIn2:daa678f1 xorOut:d6ab76fe temp:d6ab76fe w:000102030405060708090a0b0c0d0e0fd6aa74fdd2af72fadaa678f1d6ab76fexxxxxxxxxxxxxxxxxxxxxxxxxxxxxxxxxxxxxxxxxxxxxxxxxxxxxxxxxxxxxxxxxxxxxxxxxxxxxxxxxxxxxxxxxxxxxxxxxxxxxxxxxxxxxxxxxxxxxxxxxxxxxxxxxxxxxxxxxxxxxxxxxxxxxxxxxxxxxxxxxxxxxxxxxxxxxxxxxxxxxxxxxxxxxxxxxxxxxxxxxxxxxxxxxxxxxxxxxxxxxxxxxxxxxxxxxxxxxxxxxxxxxxxxxxxxxxxxxxxxxxxxxxxxxxxxxxxxxxxxxxxxxxxx
time:               58000 keyCounter:  16  round: 2 buff:x rem:2 in:0c0d0e0f rot: ab76fed6 rin:d6ab76fe sub:6238bbf6 rconv: 02000000 xorIn1:0c0d0e0f xorIn2:daa678f1 xorOut:d6ab76fe temp:d6ab76fe w:000102030405060708090a0b0c0d0e0fd6aa74fdd2af72fadaa678f1d6ab76fexxxxxxxxxxxxxxxxxxxxxxxxxxxxxxxxxxxxxxxxxxxxxxxxxxxxxxxxxxxxxxxxxxxxxxxxxxxxxxxxxxxxxxxxxxxxxxxxxxxxxxxxxxxxxxxxxxxxxxxxxxxxxxxxxxxxxxxxxxxxxxxxxxxxxxxxxxxxxxxxxxxxxxxxxxxxxxxxxxxxxxxxxxxxxxxxxxxxxxxxxxxxxxxxxxxxxxxxxxxxxxxxxxxxxxxxxxxxxxxxxxxxxxxxxxxxxxxxxxxxxxxxxxxxxxxxxxxxxxxxxxxxxxxx
time:               62000 keyCounter:  17  round: 2 buff:x rem:3 in:d6aa74fd rot: 38bbf660 rin:6038bbf6 sub:6238bbf6 rconv: 02000000 xorIn1:6238bbf6 xorIn2:02000000 xorOut:6038bbf6 temp:6038bbf6 w:000102030405060708090a0b0c0d0e0fd6aa74fdd2af72fadaa678f1d6ab76fexxxxxxxxxxxxxxxxxxxxxxxxxxxxxxxxxxxxxxxxxxxxxxxxxxxxxxxxxxxxxxxxxxxxxxxxxxxxxxxxxxxxxxxxxxxxxxxxxxxxxxxxxxxxxxxxxxxxxxxxxxxxxxxxxxxxxxxxxxxxxxxxxxxxxxxxxxxxxxxxxxxxxxxxxxxxxxxxxxxxxxxxxxxxxxxxxxxxxxxxxxxxxxxxxxxxxxxxxxxxxxxxxxxxxxxxxxxxxxxxxxxxxxxxxxxxxxxxxxxxxxxxxxxxxxxxxxxxxxxxxxxxxxxx
time:               66000 keyCounter:  18  round: 2 buff:x rem:4 in:d2af72fa rot: 92cf0bb6 rin:b692cf0b sub:6238bbf6 rconv: 02000000 xorIn1:d6aa74fd xorIn2:6038bbf6 xorOut:b692cf0b temp:b692cf0b w:000102030405060708090a0b0c0d0e0fd6aa74fdd2af72fadaa678f1d6ab76fexxxxxxxxxxxxxxxxxxxxxxxxxxxxxxxxxxxxxxxxxxxxxxxxxxxxxxxxxxxxxxxxxxxxxxxxxxxxxxxxxxxxxxxxxxxxxxxxxxxxxxxxxxxxxxxxxxxxxxxxxxxxxxxxxxxxxxxxxxxxxxxxxxxxxxxxxxxxxxxxxxxxxxxxxxxxxxxxxxxxxxxxxxxxxxxxxxxxxxxxxxxxxxxxxxxxxxxxxxxxxxxxxxxxxxxxxxxxxxxxxxxxxxxxxxxxxxxxxxxxxxxxxxxxxxxxxxxxxxxxxxxxxxxx
time:               70000 keyCounter:  19  round: 2 buff:x rem:5 in:daa678f1 rot: 3dbdf164 rin:643dbdf1 sub:6238bbf6 rconv: 02000000 xorIn1:d2af72fa xorIn2:b692cf0b xorOut:643dbdf1 temp:643dbdf1 w:000102030405060708090a0b0c0d0e0fd6aa74fdd2af72fadaa678f1d6ab76feb692cf0bxxxxxxxxxxxxxxxxxxxxxxxxxxxxxxxxxxxxxxxxxxxxxxxxxxxxxxxxxxxxxxxxxxxxxxxxxxxxxxxxxxxxxxxxxxxxxxxxxxxxxxxxxxxxxxxxxxxxxxxxxxxxxxxxxxxxxxxxxxxxxxxxxxxxxxxxxxxxxxxxxxxxxxxxxxxxxxxxxxxxxxxxxxxxxxxxxxxxxxxxxxxxxxxxxxxxxxxxxxxxxxxxxxxxxxxxxxxxxxxxxxxxxxxxxxxxxxxxxxxxxxxxxxxxxxxxxxxxxxxx
time:               74000 keyCounter:  20  round: 2 buff:x rem:6 in:d6ab76fe rot: 9bc500be rin:be9bc500 sub:6238bbf6 rconv: 02000000 xorIn1:daa678f1 xorIn2:643dbdf1 xorOut:be9bc500 temp:be9bc500 w:000102030405060708090a0b0c0d0e0fd6aa74fdd2af72fadaa678f1d6ab76feb692cf0b643dbdf1xxxxxxxxxxxxxxxxxxxxxxxxxxxxxxxxxxxxxxxxxxxxxxxxxxxxxxxxxxxxxxxxxxxxxxxxxxxxxxxxxxxxxxxxxxxxxxxxxxxxxxxxxxxxxxxxxxxxxxxxxxxxxxxxxxxxxxxxxxxxxxxxxxxxxxxxxxxxxxxxxxxxxxxxxxxxxxxxxxxxxxxxxxxxxxxxxxxxxxxxxxxxxxxxxxxxxxxxxxxxxxxxxxxxxxxxxxxxxxxxxxxxxxxxxxxxxxxxxxxxxxxxxxxxxxxx
time:               78000 keyCounter:  21  round: 3 buff:x rem:0 in:d2af72fa rot: 30b3fe68 rin:6830b3fe sub:6238bbf6 rconv: 04000000 xorIn1:d6ab76fe xorIn2:be9bc500 xorOut:6830b3fe temp:6830b3fe w:000102030405060708090a0b0c0d0e0fd6aa74fdd2af72fadaa678f1d6ab76feb692cf0b643dbdf1be9bc500xxxxxxxxxxxxxxxxxxxxxxxxxxxxxxxxxxxxxxxxxxxxxxxxxxxxxxxxxxxxxxxxxxxxxxxxxxxxxxxxxxxxxxxxxxxxxxxxxxxxxxxxxxxxxxxxxxxxxxxxxxxxxxxxxxxxxxxxxxxxxxxxxxxxxxxxxxxxxxxxxxxxxxxxxxxxxxxxxxxxxxxxxxxxxxxxxxxxxxxxxxxxxxxxxxxxxxxxxxxxxxxxxxxxxxxxxxxxxxxxxxxxxxxxxxxxxxxxxxxxxxxx
time:               82000 keyCounter:  22  round: 3 buff:x rem:1 in:daa678f1 rot: 30b3fe68 rin:6830b3fe sub:6238bbf6 rconv: 04000000 xorIn1:d6ab76fe xorIn2:be9bc500 xorOut:6830b3fe temp:6830b3fe w:000102030405060708090a0b0c0d0e0fd6aa74fdd2af72fadaa678f1d6ab76feb692cf0b643dbdf1be9bc5006830b3fexxxxxxxxxxxxxxxxxxxxxxxxxxxxxxxxxxxxxxxxxxxxxxxxxxxxxxxxxxxxxxxxxxxxxxxxxxxxxxxxxxxxxxxxxxxxxxxxxxxxxxxxxxxxxxxxxxxxxxxxxxxxxxxxxxxxxxxxxxxxxxxxxxxxxxxxxxxxxxxxxxxxxxxxxxxxxxxxxxxxxxxxxxxxxxxxxxxxxxxxxxxxxxxxxxxxxxxxxxxxxxxxxxxxxxxxxxxxxxxxxxxxxxxxxxxxxxxx
time:               86000 keyCounter:  23  round: 3 buff:x rem:2 in:d6ab76fe rot: 30b3fe68 rin:6830b3fe sub:046dbb45 rconv: 04000000 xorIn1:d6ab76fe xorIn2:be9bc500 xorOut:6830b3fe temp:6830b3fe w:000102030405060708090a0b0c0d0e0fd6aa74fdd2af72fadaa678f1d6ab76feb692cf0b643dbdf1be9bc5006830b3fexxxxxxxxxxxxxxxxxxxxxxxxxxxxxxxxxxxxxxxxxxxxxxxxxxxxxxxxxxxxxxxxxxxxxxxxxxxxxxxxxxxxxxxxxxxxxxxxxxxxxxxxxxxxxxxxxxxxxxxxxxxxxxxxxxxxxxxxxxxxxxxxxxxxxxxxxxxxxxxxxxxxxxxxxxxxxxxxxxxxxxxxxxxxxxxxxxxxxxxxxxxxxxxxxxxxxxxxxxxxxxxxxxxxxxxxxxxxxxxxxxxxxxxxxxxxxxxx
time:               90000 keyCounter:  24  round: 3 buff:x rem:3 in:b692cf0b rot: 6dbb4500 rin:006dbb45 sub:046dbb45 rconv: 04000000 xorIn1:046dbb45 xorIn2:04000000 xorOut:006dbb45 temp:006dbb45 w:000102030405060708090a0b0c0d0e0fd6aa74fdd2af72fadaa678f1d6ab76feb692cf0b643dbdf1be9bc5006830b3fexxxxxxxxxxxxxxxxxxxxxxxxxxxxxxxxxxxxxxxxxxxxxxxxxxxxxxxxxxxxxxxxxxxxxxxxxxxxxxxxxxxxxxxxxxxxxxxxxxxxxxxxxxxxxxxxxxxxxxxxxxxxxxxxxxxxxxxxxxxxxxxxxxxxxxxxxxxxxxxxxxxxxxxxxxxxxxxxxxxxxxxxxxxxxxxxxxxxxxxxxxxxxxxxxxxxxxxxxxxxxxxxxxxxxxxxxxxxxxxxxxxxxxxxxxxxxxxx
time:               94000 keyCounter:  25  round: 3 buff:x rem:4 in:643dbdf1 rot: ff744eb6 rin:b6ff744e sub:046dbb45 rconv: 04000000 xorIn1:b692cf0b xorIn2:006dbb45 xorOut:b6ff744e temp:b6ff744e w:000102030405060708090a0b0c0d0e0fd6aa74fdd2af72fadaa678f1d6ab76feb692cf0b643dbdf1be9bc5006830b3fexxxxxxxxxxxxxxxxxxxxxxxxxxxxxxxxxxxxxxxxxxxxxxxxxxxxxxxxxxxxxxxxxxxxxxxxxxxxxxxxxxxxxxxxxxxxxxxxxxxxxxxxxxxxxxxxxxxxxxxxxxxxxxxxxxxxxxxxxxxxxxxxxxxxxxxxxxxxxxxxxxxxxxxxxxxxxxxxxxxxxxxxxxxxxxxxxxxxxxxxxxxxxxxxxxxxxxxxxxxxxxxxxxxxxxxxxxxxxxxxxxxxxxxxxxxxxxxx
time:               98000 keyCounter:  26  round: 3 buff:x rem:5 in:be9bc500 rot: c2c9bfd2 rin:d2c2c9bf sub:046dbb45 rconv: 04000000 xorIn1:643dbdf1 xorIn2:b6ff744e xorOut:d2c2c9bf temp:d2c2c9bf w:000102030405060708090a0b0c0d0e0fd6aa74fdd2af72fadaa678f1d6ab76feb692cf0b643dbdf1be9bc5006830b3feb6ff744exxxxxxxxxxxxxxxxxxxxxxxxxxxxxxxxxxxxxxxxxxxxxxxxxxxxxxxxxxxxxxxxxxxxxxxxxxxxxxxxxxxxxxxxxxxxxxxxxxxxxxxxxxxxxxxxxxxxxxxxxxxxxxxxxxxxxxxxxxxxxxxxxxxxxxxxxxxxxxxxxxxxxxxxxxxxxxxxxxxxxxxxxxxxxxxxxxxxxxxxxxxxxxxxxxxxxxxxxxxxxxxxxxxxxxxxxxxxxxxxxxxxxxxx
time:              102000 keyCounter:  27  round: 3 buff:x rem:6 in:6830b3fe rot: 590cbf6c rin:6c590cbf sub:046dbb45 rconv: 04000000 xorIn1:be9bc500 xorIn2:d2c2c9bf xorOut:6c590cbf temp:6c590cbf w:000102030405060708090a0b0c0d0e0fd6aa74fdd2af72fadaa678f1d6ab76feb692cf0b643dbdf1be9bc5006830b3feb6ff744ed2c2c9bfxxxxxxxxxxxxxxxxxxxxxxxxxxxxxxxxxxxxxxxxxxxxxxxxxxxxxxxxxxxxxxxxxxxxxxxxxxxxxxxxxxxxxxxxxxxxxxxxxxxxxxxxxxxxxxxxxxxxxxxxxxxxxxxxxxxxxxxxxxxxxxxxxxxxxxxxxxxxxxxxxxxxxxxxxxxxxxxxxxxxxxxxxxxxxxxxxxxxxxxxxxxxxxxxxxxxxxxxxxxxxxxxxxxxxxxxxxxxxxxx
time:              106000 keyCounter:  28  round: 4 buff:x rem:0 in:643dbdf1 rot: 69bf4104 rin:0469bf41 sub:046dbb45 rconv: 08000000 xorIn1:6830b3fe xorIn2:6c590cbf xorOut:0469bf41 temp:0469bf41 w:000102030405060708090a0b0c0d0e0fd6aa74fdd2af72fadaa678f1d6ab76feb692cf0b643dbdf1be9bc5006830b3feb6ff744ed2c2c9bf6c590cbfxxxxxxxxxxxxxxxxxxxxxxxxxxxxxxxxxxxxxxxxxxxxxxxxxxxxxxxxxxxxxxxxxxxxxxxxxxxxxxxxxxxxxxxxxxxxxxxxxxxxxxxxxxxxxxxxxxxxxxxxxxxxxxxxxxxxxxxxxxxxxxxxxxxxxxxxxxxxxxxxxxxxxxxxxxxxxxxxxxxxxxxxxxxxxxxxxxxxxxxxxxxxxxxxxxxxxxxxxxxxxxxxxxxxxxxx
time:              110000 keyCounter:  29  round: 4 buff:x rem:1 in:be9bc500 rot: 69bf4104 rin:0469bf41 sub:046dbb45 rconv: 08000000 xorIn1:6830b3fe xorIn2:6c590cbf xorOut:0469bf41 temp:0469bf41 w:000102030405060708090a0b0c0d0e0fd6aa74fdd2af72fadaa678f1d6ab76feb692cf0b643dbdf1be9bc5006830b3feb6ff744ed2c2c9bf6c590cbf0469bf41xxxxxxxxxxxxxxxxxxxxxxxxxxxxxxxxxxxxxxxxxxxxxxxxxxxxxxxxxxxxxxxxxxxxxxxxxxxxxxxxxxxxxxxxxxxxxxxxxxxxxxxxxxxxxxxxxxxxxxxxxxxxxxxxxxxxxxxxxxxxxxxxxxxxxxxxxxxxxxxxxxxxxxxxxxxxxxxxxxxxxxxxxxxxxxxxxxxxxxxxxxxxxxxxxxxxxxxxxxxxxxxx
time:              114000 keyCounter:  30  round: 4 buff:x rem:2 in:6830b3fe rot: 69bf4104 rin:0469bf41 sub:f90883f2 rconv: 08000000 xorIn1:6830b3fe xorIn2:6c590cbf xorOut:0469bf41 temp:0469bf41 w:000102030405060708090a0b0c0d0e0fd6aa74fdd2af72fadaa678f1d6ab76feb692cf0b643dbdf1be9bc5006830b3feb6ff744ed2c2c9bf6c590cbf0469bf41xxxxxxxxxxxxxxxxxxxxxxxxxxxxxxxxxxxxxxxxxxxxxxxxxxxxxxxxxxxxxxxxxxxxxxxxxxxxxxxxxxxxxxxxxxxxxxxxxxxxxxxxxxxxxxxxxxxxxxxxxxxxxxxxxxxxxxxxxxxxxxxxxxxxxxxxxxxxxxxxxxxxxxxxxxxxxxxxxxxxxxxxxxxxxxxxxxxxxxxxxxxxxxxxxxxxxxxxxxxxxxxx
time:              118000 keyCounter:  31  round: 4 buff:x rem:3 in:b6ff744e rot: 0883f2f1 rin:f10883f2 sub:f90883f2 rconv: 08000000 xorIn1:f90883f2 xorIn2:08000000 xorOut:f10883f2 temp:f10883f2 w:000102030405060708090a0b0c0d0e0fd6aa74fdd2af72fadaa678f1d6ab76feb692cf0b643dbdf1be9bc5006830b3feb6ff744ed2c2c9bf6c590cbf0469bf41xxxxxxxxxxxxxxxxxxxxxxxxxxxxxxxxxxxxxxxxxxxxxxxxxxxxxxxxxxxxxxxxxxxxxxxxxxxxxxxxxxxxxxxxxxxxxxxxxxxxxxxxxxxxxxxxxxxxxxxxxxxxxxxxxxxxxxxxxxxxxxxxxxxxxxxxxxxxxxxxxxxxxxxxxxxxxxxxxxxxxxxxxxxxxxxxxxxxxxxxxxxxxxxxxxxxxxxxxxxxxxxx
time:              122000 keyCounter:  32  round: 4 buff:x rem:4 in:d2c2c9bf rot: f7f7bc47 rin:47f7f7bc sub:f90883f2 rconv: 08000000 xorIn1:b6ff744e xorIn2:f10883f2 xorOut:47f7f7bc temp:47f7f7bc w:000102030405060708090a0b0c0d0e0fd6aa74fdd2af72fadaa678f1d6ab76feb692cf0b643dbdf1be9bc5006830b3feb6ff744ed2c2c9bf6c590cbf0469bf41xxxxxxxxxxxxxxxxxxxxxxxxxxxxxxxxxxxxxxxxxxxxxxxxxxxxxxxxxxxxxxxxxxxxxxxxxxxxxxxxxxxxxxxxxxxxxxxxxxxxxxxxxxxxxxxxxxxxxxxxxxxxxxxxxxxxxxxxxxxxxxxxxxxxxxxxxxxxxxxxxxxxxxxxxxxxxxxxxxxxxxxxxxxxxxxxxxxxxxxxxxxxxxxxxxxxxxxxxxxxxxxx
time:              126000 keyCounter:  33  round: 4 buff:x rem:5 in:6c590cbf rot: 353e0395 rin:95353e03 sub:f90883f2 rconv: 08000000 xorIn1:d2c2c9bf xorIn2:47f7f7bc xorOut:95353e03 temp:95353e03 w:000102030405060708090a0b0c0d0e0fd6aa74fdd2af72fadaa678f1d6ab76feb692cf0b643dbdf1be9bc5006830b3feb6ff744ed2c2c9bf6c590cbf0469bf4147f7f7bcxxxxxxxxxxxxxxxxxxxxxxxxxxxxxxxxxxxxxxxxxxxxxxxxxxxxxxxxxxxxxxxxxxxxxxxxxxxxxxxxxxxxxxxxxxxxxxxxxxxxxxxxxxxxxxxxxxxxxxxxxxxxxxxxxxxxxxxxxxxxxxxxxxxxxxxxxxxxxxxxxxxxxxxxxxxxxxxxxxxxxxxxxxxxxxxxxxxxxxxxxxxxxxxxxxxxxxxx
time:              130000 keyCounter:  34  round: 4 buff:x rem:6 in:0469bf41 rot: 6c32bcf9 rin:f96c32bc sub:f90883f2 rconv: 08000000 xorIn1:6c590cbf xorIn2:95353e03 xorOut:f96c32bc temp:f96c32bc w:000102030405060708090a0b0c0d0e0fd6aa74fdd2af72fadaa678f1d6ab76feb692cf0b643dbdf1be9bc5006830b3feb6ff744ed2c2c9bf6c590cbf0469bf4147f7f7bc95353e03xxxxxxxxxxxxxxxxxxxxxxxxxxxxxxxxxxxxxxxxxxxxxxxxxxxxxxxxxxxxxxxxxxxxxxxxxxxxxxxxxxxxxxxxxxxxxxxxxxxxxxxxxxxxxxxxxxxxxxxxxxxxxxxxxxxxxxxxxxxxxxxxxxxxxxxxxxxxxxxxxxxxxxxxxxxxxxxxxxxxxxxxxxxxxxxxxxxxxxxxxxxxxxxx
time:              134000 keyCounter:  35  round: 5 buff:x rem:0 in:d2c2c9bf rot: 058dfdfd rin:fd058dfd sub:f90883f2 rconv: 10000000 xorIn1:0469bf41 xorIn2:f96c32bc xorOut:fd058dfd temp:fd058dfd w:000102030405060708090a0b0c0d0e0fd6aa74fdd2af72fadaa678f1d6ab76feb692cf0b643dbdf1be9bc5006830b3feb6ff744ed2c2c9bf6c590cbf0469bf4147f7f7bc95353e03f96c32bcxxxxxxxxxxxxxxxxxxxxxxxxxxxxxxxxxxxxxxxxxxxxxxxxxxxxxxxxxxxxxxxxxxxxxxxxxxxxxxxxxxxxxxxxxxxxxxxxxxxxxxxxxxxxxxxxxxxxxxxxxxxxxxxxxxxxxxxxxxxxxxxxxxxxxxxxxxxxxxxxxxxxxxxxxxxxxxxxxxxxxxxxxxxxxxxxxxxxxxxx
time:              138000 keyCounter:  36  round: 5 buff:x rem:1 in:6c590cbf rot: 058dfdfd rin:fd058dfd sub:f90883f2 rconv: 10000000 xorIn1:0469bf41 xorIn2:f96c32bc xorOut:fd058dfd temp:fd058dfd w:000102030405060708090a0b0c0d0e0fd6aa74fdd2af72fadaa678f1d6ab76feb692cf0b643dbdf1be9bc5006830b3feb6ff744ed2c2c9bf6c590cbf0469bf4147f7f7bc95353e03f96c32bcfd058dfdxxxxxxxxxxxxxxxxxxxxxxxxxxxxxxxxxxxxxxxxxxxxxxxxxxxxxxxxxxxxxxxxxxxxxxxxxxxxxxxxxxxxxxxxxxxxxxxxxxxxxxxxxxxxxxxxxxxxxxxxxxxxxxxxxxxxxxxxxxxxxxxxxxxxxxxxxxxxxxxxxxxxxxxxxxxxxxxxxxxxxxxxxxxxxxxx
time:              142000 keyCounter:  37  round: 5 buff:x rem:2 in:0469bf41 rot: 058dfdfd rin:fd058dfd sub:6b5d5454 rconv: 10000000 xorIn1:0469bf41 xorIn2:f96c32bc xorOut:fd058dfd temp:fd058dfd w:000102030405060708090a0b0c0d0e0fd6aa74fdd2af72fadaa678f1d6ab76feb692cf0b643dbdf1be9bc5006830b3feb6ff744ed2c2c9bf6c590cbf0469bf4147f7f7bc95353e03f96c32bcfd058dfdxxxxxxxxxxxxxxxxxxxxxxxxxxxxxxxxxxxxxxxxxxxxxxxxxxxxxxxxxxxxxxxxxxxxxxxxxxxxxxxxxxxxxxxxxxxxxxxxxxxxxxxxxxxxxxxxxxxxxxxxxxxxxxxxxxxxxxxxxxxxxxxxxxxxxxxxxxxxxxxxxxxxxxxxxxxxxxxxxxxxxxxxxxxxxxxx
time:              146000 keyCounter:  38  round: 5 buff:x rem:3 in:47f7f7bc rot: 5d54547b rin:7b5d5454 sub:6b5d5454 rconv: 10000000 xorIn1:6b5d5454 xorIn2:10000000 xorOut:7b5d5454 temp:7b5d5454 w:000102030405060708090a0b0c0d0e0fd6aa74fdd2af72fadaa678f1d6ab76feb692cf0b643dbdf1be9bc5006830b3feb6ff744ed2c2c9bf6c590cbf0469bf4147f7f7bc95353e03f96c32bcfd058dfdxxxxxxxxxxxxxxxxxxxxxxxxxxxxxxxxxxxxxxxxxxxxxxxxxxxxxxxxxxxxxxxxxxxxxxxxxxxxxxxxxxxxxxxxxxxxxxxxxxxxxxxxxxxxxxxxxxxxxxxxxxxxxxxxxxxxxxxxxxxxxxxxxxxxxxxxxxxxxxxxxxxxxxxxxxxxxxxxxxxxxxxxxxxxxxxx
time:              150000 keyCounter:  39  round: 5 buff:x rem:4 in:95353e03 rot: aaa3e83c rin:3caaa3e8 sub:6b5d5454 rconv: 10000000 xorIn1:47f7f7bc xorIn2:7b5d5454 xorOut:3caaa3e8 temp:3caaa3e8 w:000102030405060708090a0b0c0d0e0fd6aa74fdd2af72fadaa678f1d6ab76feb692cf0b643dbdf1be9bc5006830b3feb6ff744ed2c2c9bf6c590cbf0469bf4147f7f7bc95353e03f96c32bcfd058dfdxxxxxxxxxxxxxxxxxxxxxxxxxxxxxxxxxxxxxxxxxxxxxxxxxxxxxxxxxxxxxxxxxxxxxxxxxxxxxxxxxxxxxxxxxxxxxxxxxxxxxxxxxxxxxxxxxxxxxxxxxxxxxxxxxxxxxxxxxxxxxxxxxxxxxxxxxxxxxxxxxxxxxxxxxxxxxxxxxxxxxxxxxxxxxxxx
